{
  "name": "Observations Multi-Tenant RESTful Web Services",
  "company": "ALARAX TECH LIMITED",
  "author": "Sebastian Gug",
  "contact info": "sebastian.gug@gmail.com",
  "alternative contact info": "07543823164"
}
